"","col1","col2","ASDin","nLx","Deaths","ASBR","Births","Survivors","NIMR","NIM","ASDout"
"1","p2019.24","fBirths",3448440.68702097,5,364022.226738895,1.03,NA,NA,NA,NA,NA
"2","p2019.24","f0-4",2985484,4.472193,127027.796640262,NA,NA,3084418.46028207,0,0,3084418.46028207
"3","p2019.24","f5-9",3084445,4.281908,46792.0792109499,NA,NA,2858456.20335974,0,0,2858456.20335974
"4","p2019.24","f10-14",3136149,4.21695,40455.8349759896,NA,NA,3037652.92078905,0,0,3037652.92078905
"5","p2019.24","f15-19",2599905,4.162552,65141.4065385847,0.0527,750395.058241913,3095693.16502401,0,0,3095693.16502401
"6","p2019.24","f20-24",2335052,4.058258,115255.511397255,0.1691,2058714.54213581,2534763.59346142,0,0,2534763.59346142
"7","p2019.24","f25-29",2014546,3.857947,142340.230451066,0.1751,1853583.42438585,2219796.48860274,0,0,2219796.48860274
"8","p2019.24","f30-34",1871625,3.585359,141509.393236493,0.1407,1316892.47318884,1872205.76954893,0,0,1872205.76954893
"9","p2019.24","f35-39",1301624,3.314278,91535.2938262872,0.0981,743534.13855875,1730115.60676351,0,0,1730115.60676351
"10","p2019.24","f40-44",1101867,3.081205,75229.8723788259,0.0414,239287.415588979,1210088.70617371,0,0,1210088.70617371
"11","p2019.24","f45-49",869740,2.870836,59677.9941104264,0.008,37927.5425524235,1026637.12762117,0,0,1026637.12762117
"12","p2019.24","f50-54",645463,2.673851,47130.3564248718,NA,NA,810062.005889574,0,0,810062.005889574
"13","p2019.24","f55-59",571000,2.478612,54429.9555557707,NA,NA,598332.643575128,0,0,598332.643575128
"14","p2019.24","f60-64",450447,2.242341,62331.6209189414,NA,NA,516570.044444229,0,0,516570.044444229
"15","p2019.24","f65-69",346756,1.932052,71464.0932790629,NA,NA,388115.379081059,0,0,388115.379081059
"16","p2019.24","f70-74",278507,1.533869,84822.4291637682,NA,NA,275291.906720937,0,0,275291.906720937
"17","p2019.24","f75-79",163799,1.066712,70879.0085918223,NA,NA,193684.570836232,0,0,193684.570836232
"18","p2019.24","f80-84",120944,0.605125,82084.6253451766,NA,NA,92919.9914081777,0,0,92919.9914081777
"19","p2019.24","f85-89",69635,0.194427,49100.5418743281,NA,NA,38859.3746548234,0,0,38859.3746548234
"20","p2019.24","f90-94",35866,0.057334,31946.850978477,NA,NA,20534.4581256719,0,0,20534.4581256719
"21","p2019.24","f95+",28416,0.006265,25834.6016543317,NA,NA,6500.54736719127,0,0,6500.54736719127
"22","p2019.24","f100+",NA,0.000626,NA,NA,NA,NA,NA,NA,NA
"23","p2019.24","fTotal",24011270,50.692074,1849011.72329159,3.4255,7000334.59465257,25610698.9637294,0,0,25610698.9637294
"24","p2019.24","mBirths",3551893.9076316,5,382827.387637223,NA,NA,NA,NA,NA,NA
"25","p2019.24","m0-4",3005496,4.461094,137574.168956762,NA,NA,3169066.51999438,0,0,3169066.51999438
"26","p2019.24","m5-9",3116101,4.256891,54980.7899730109,NA,NA,2867921.83104324,0,0,2867921.83104324
"27","p2019.24","m10-14",3209544,4.181782,44576.7654841887,NA,NA,3061120.21002699,0,0,3061120.21002699
"28","p2019.24","m15-19",2686476,4.123702,57638.3253746269,NA,NA,3164967.23451581,0,0,3164967.23451581
"29","p2019.24","m20-24",2112777,4.035228,83832.4535319936,NA,NA,2628837.67462537,0,0,2628837.67462537
"30","p2019.24","m25-29",1839256,3.875115,112679.68342204,NA,NA,2028944.54646801,0,0,2028944.54646801
"31","p2019.24","m30-34",1698354,3.637711,133204.390918905,NA,NA,1726576.31657796,0,0,1726576.31657796
"32","p2019.24","m35-39",1347962,3.3524,125511.168827109,NA,NA,1565149.6090811,0,0,1565149.6090811
"33","p2019.24","m40-44",1156932,3.040252,123274.966834328,NA,NA,1222450.83117289,0,0,1222450.83117289
"34","p2019.24","m45-49",916166,2.716303,104723.361620556,NA,NA,1033657.03316567,0,0,1033657.03316567
"35","p2019.24","m50-54",662864,2.405813,73484.7092637708,NA,NA,811442.638379444,0,0,811442.638379444
"36","p2019.24","m55-59",546852,2.139106,70891.9243422252,NA,NA,589379.290736229,0,0,589379.290736229
"37","p2019.24","m60-64",419362,1.8618,77887.4028456333,NA,NA,475960.075657775,0,0,475960.075657775
"38","p2019.24","m65-69",311281,1.516011,82599.1281309964,NA,NA,341474.597154367,0,0,341474.597154367
"39","p2019.24","m70-74",235929,1.113734,88200.6890577104,NA,NA,228681.871869004,0,0,228681.871869004
"40","p2019.24","m75-79",119265,0.697371,60479.8229349944,NA,NA,147728.31094229,0,0,147728.31094229
"41","p2019.24","m80-84",82909,0.343731,59607.0872746421,NA,NA,58785.1770650056,0,0,58785.1770650056
"42","p2019.24","m85-89",43948,0.096607,34240.1080252984,NA,NA,23301.9127253579,0,0,23301.9127253579
"43","p2019.24","m90-94",19225,0.02134,18190.7778819119,NA,NA,9707.89197470163,0,0,9707.89197470163
"44","p2019.24","m95+",13673,0.001148,12428.0316706255,NA,NA,2279.19044746261,0,0,2279.19044746261
"45","p2019.24","m100+",NA,0.000115,NA,NA,NA,NA,NA,NA,NA
"46","p2019.24","mTotal",23544372,47.877139,1938833.14400855,NA,NA,25157432.763623,0,0,25157432.763623
"47","p2024.29","fBirths",3815112.39943329,5,402728.606041537,1.03,NA,NA,NA,NA,NA
"48","p2024.29","f0-4",3084418.46028207,4.472193,131237.307225957,NA,NA,3412383.79339175,0,0,3412383.79339175
"49","p2024.29","f5-9",2858456.20335974,4.281908,43363.752340742,NA,NA,2953181.15305612,0,0,2953181.15305612
"50","p2024.29","f10-14",3037652.92078905,4.21695,39185.2508531242,NA,NA,2815092.451019,0,0,2815092.451019
"51","p2024.29","f15-19",3095693.16502401,4.162552,77563.5290449255,0.0527,802905.690005972,2998467.66993593,0,0,2998467.66993593
"52","p2024.29","f20-24",2534763.59346142,4.058258,125113.048546901,0.1691,2347485.61274597,3018129.63597908,0,0,3018129.63597908
"53","p2024.29","f25-29",2219796.48860274,3.857947,156842.456683631,0.1751,2026540.43892218,2409650.54491451,0,0,2409650.54491451
"54","p2024.29","f30-34",1872205.76954893,3.585359,141553.303927193,0.1407,1384192.46016639,2062954.03191911,0,0,2062954.03191911
"55","p2024.29","f35-39",1730115.60676351,3.314278,121668.500595059,0.0981,848753.369752482,1730652.46562174,0,0,1730652.46562174
"56","p2024.29","f40-44",1210088.70617371,3.081205,82618.6998362842,0.0414,291718.456577414,1608447.10616845,0,0,1608447.10616845
"57","p2024.29","f45-49",1026637.12762117,2.870836,70443.631954057,0.008,43082.1426791721,1127470.00633743,0,0,1127470.00633743
"58","p2024.29","f50-54",810062.005889574,2.673851,59149.0311045284,NA,NA,956193.495667117,0,0,956193.495667117
"59","p2024.29","f55-59",598332.643575128,2.478612,57035.4101529965,NA,NA,750912.974785045,0,0,750912.974785045
"60","p2024.29","f60-64",516570.044444229,2.242341,71481.5465268465,NA,NA,541297.233422132,0,0,541297.233422132
"61","p2024.29","f65-69",388115.379081059,1.932052,79987.984789557,NA,NA,445088.497917383,0,0,445088.497917383
"62","p2024.29","f70-74",275291.906720937,1.533869,83843.2364615445,NA,NA,308127.394291502,0,0,308127.394291502
"63","p2024.29","f75-79",193684.570836232,1.066712,83811.0755279623,NA,NA,191448.670259393,0,0,191448.670259393
"64","p2024.29","f80-84",92919.9914081777,0.605125,63064.7463439054,NA,NA,109873.495308269,0,0,109873.495308269
"65","p2024.29","f85-89",38859.3746548234,0.194427,27400.2491914894,NA,NA,29855.2450642723,0,0,29855.2450642723
"66","p2024.29","f90-94",20534.4581256719,0.057334,18290.6171210789,NA,NA,11459.125463334,0,0,11459.125463334
"67","p2024.29","f95+",6500.54736719127,0.006265,5910.01730597204,NA,NA,2834.37106581222,0,0,2834.37106581222
"68","p2024.29","f100+",NA,0.000626,NA,NA,NA,NA,NA,NA,NA
"69","p2024.29","fTotal",25610698.9637294,50.692074,1942292.00157529,3.4255,7744678.17084958,27483519.3615874,0,0,27483519.3615874
"70","p2024.29","mBirths",3929565.77141629,5,423533.314322173,NA,NA,NA,NA,NA,NA
"71","p2024.29","m0-4",3169066.51999438,4.461094,145061.478324019,NA,NA,3506032.45709411,0,0,3506032.45709411
"72","p2024.29","m5-9",2867921.83104324,4.256891,50601.8925097746,NA,NA,3024005.04167036,0,0,3024005.04167036
"73","p2024.29","m10-14",3061120.21002699,4.181782,42515.3348018546,NA,NA,2817319.93853346,0,0,2817319.93853346
"74","p2024.29","m15-19",3164967.23451581,4.123702,67904.3517466955,NA,NA,3018604.87522513,0,0,3018604.87522513
"75","p2024.29","m20-24",2628837.67462537,4.035228,104309.121218749,NA,NA,3097062.88276912,0,0,3097062.88276912
"76","p2024.29","m25-29",2028944.54646801,3.875115,124300.711362035,NA,NA,2524528.55340662,0,0,2524528.55340662
"77","p2024.29","m30-34",1726576.31657796,3.637711,135417.908530715,NA,NA,1904643.83510597,0,0,1904643.83510597
"78","p2024.29","m35-39",1565149.6090811,3.3524,145733.898155186,NA,NA,1591158.40804724,0,0,1591158.40804724
"79","p2024.29","m40-44",1222450.83117289,3.040252,130256.217020046,NA,NA,1419415.71092591,0,0,1419415.71092591
"80","p2024.29","m45-49",1033657.03316567,2.716303,118153.303305121,NA,NA,1092194.61415285,0,0,1092194.61415285
"81","p2024.29","m50-54",811442.638379444,2.405813,89956.0488509567,NA,NA,915503.729860551,0,0,915503.729860551
"82","p2024.29","m55-59",589379.290736229,2.139106,76405.0091939814,NA,NA,721486.589528488,0,0,721486.589528488
"83","p2024.29","m60-64",475960.075657775,1.8618,88399.2687730295,NA,NA,512974.281542248,0,0,512974.281542248
"84","p2024.29","m65-69",341474.597154367,1.516011,90611.0684681491,NA,NA,387560.806884745,0,0,387560.806884745
"85","p2024.29","m70-74",228681.871869004,1.113734,85491.3922148322,NA,NA,250863.528686218,0,0,250863.528686218
"86","p2024.29","m75-79",147728.31094229,0.697371,74913.6971305536,NA,NA,143190.479654171,0,0,143190.479654171
"87","p2024.29","m80-84",58785.1770650056,0.343731,42263.3632026568,NA,NA,72814.613811736,0,0,72814.613811736
"88","p2024.29","m85-89",23301.9127253579,0.096607,18154.6375014183,NA,NA,16521.8138623487,0,0,16521.8138623487
"89","p2024.29","m90-94",9707.89197470163,0.02134,9185.64923866801,NA,NA,5147.27522393965,0,0,5147.27522393965
"90","p2024.29","m95+",2279.19044746261,0.001148,2071.66320957013,NA,NA,729.769973926099,0,0,729.769973926099
"91","p2024.29","m100+",NA,0.000115,NA,NA,NA,NA,NA,NA,NA
"92","p2024.29","mTotal",25157432.763623,47.877139,2065239.32908018,NA,NA,27021759.2059592,0,0,27021759.2059592
"93","p2029.34","fBirths",4125472.4617212,5,435490.648720736,1.03,NA,NA,NA,NA,NA
"94","p2029.34","f0-4",3412383.79339175,4.472193,145191.732585233,NA,NA,3689981.81300046,0,0,3689981.81300046
"95","p2029.34","f5-9",2953181.15305612,4.281908,44800.7620295016,NA,NA,3267192.06080652,0,0,3267192.06080652
"96","p2029.34","f10-14",2815092.451019,4.21695,36314.2553624138,NA,NA,2908380.39102661,0,0,2908380.39102661
"97","p2029.34","f15-19",2998467.66993593,4.162552,75127.5148438496,0.0527,761152.142791813,2778778.19565658,0,0,2778778.19565658
"98","p2029.34","f20-24",3018129.63597908,4.058258,148971.446742077,0.1691,2511756.35417533,2923340.15509208,0,0,2923340.15509208
"99","p2029.34","f25-29",2409650.54491451,3.857947,170256.829017391,0.1751,2310798.52337483,2869158.18923701,0,0,2869158.18923701
"100","p2029.34","f30-34",2062954.03191911,3.585359,155975.354748762,0.1407,1513350.82029436,2239393.71589712,0,0,2239393.71589712
"101","p2029.34","f35-39",1730652.46562174,3.314278,121706.254611066,0.0981,892129.037769761,1906978.67717035,0,0,1906978.67717035
"102","p2029.34","f40-44",1608447.10616845,3.081205,109816.584510784,0.0414,333000.208328039,1608946.21101067,0,0,1608946.21101067
"103","p2029.34","f45-49",1127470.00633743,2.870836,77362.3708210356,0.008,52522.0105599018,1498630.52165766,0,0,1498630.52165766
"104","p2029.34","f50-54",956193.495667117,2.673851,69819.2464354043,NA,NA,1050107.63551639,0,0,1050107.63551639
"105","p2029.34","f55-59",750912.974785045,2.478612,71579.9647001779,NA,NA,886374.249231713,0,0,886374.249231713
"106","p2029.34","f60-64",541297.233422132,2.242341,74903.2271457909,NA,NA,679333.010084867,0,0,679333.010084867
"107","p2029.34","f65-69",445088.497917383,1.932052,91729.7636741854,NA,NA,466394.006276341,0,0,466394.006276341
"108","p2029.34","f70-74",308127.394291502,1.533869,93843.6523164853,NA,NA,353358.734243197,0,0,353358.734243197
"109","p2029.34","f75-79",191448.670259393,1.066712,82843.5579228717,NA,NA,214283.741975016,0,0,214283.741975016
"110","p2029.34","f80-84",109873.495308269,0.605125,74571.0799853182,NA,NA,108605.112336521,0,0,108605.112336521
"111","p2029.34","f85-89",29855.2450642723,0.194427,21051.3206066867,NA,NA,35302.4153229513,0,0,35302.4153229513
"112","p2029.34","f90-94",11459.125463334,0.057334,10206.9640751911,NA,NA,8803.92445758555,0,0,8803.92445758555
"113","p2029.34","f95+",2834.37106581222,0.006265,2576.88793024431,NA,NA,1509.64452371085,0,0,1509.64452371085
"114","p2029.34","f100+",NA,0.000626,NA,NA,NA,NA,NA,NA,NA
"115","p2029.34","fTotal",27483519.3615874,50.692074,2114139.41878521,3.4255,8374709.09729404,29494852.4045234,0,0,29494852.4045234
"116","p2029.34","mBirths",4249236.63557284,5,457987.823666003,NA,NA,NA,NA,NA,NA
"117","p2029.34","m0-4",3506032.45709411,4.461094,160485.823844104,NA,NA,3791248.81190683,0,0,3791248.81190683
"118","p2029.34","m5-9",3024005.04167036,4.256891,53355.8399016604,NA,NA,3345546.63325001,0,0,3345546.63325001
"119","p2029.34","m10-14",2817319.93853346,4.181782,39129.2377340629,NA,NA,2970649.2017687,0,0,2970649.2017687
"120","p2029.34","m15-19",3018604.87522513,4.123702,64764.1482654829,NA,NA,2778190.7007994,0,0,2778190.7007994
"121","p2029.34","m20-24",3097062.88276912,4.035228,122887.735054577,NA,NA,2953840.72695965,0,0,2953840.72695965
"122","p2029.34","m25-29",2524528.55340662,3.875115,154662.036273232,NA,NA,2974175.14771454,0,0,2974175.14771454
"123","p2029.34","m30-34",1904643.83510597,3.637711,149384.004732075,NA,NA,2369866.51713339,0,0,2369866.51713339
"124","p2029.34","m35-39",1591158.40804724,3.3524,148155.624255796,NA,NA,1755259.8303739,0,0,1755259.8303739
"125","p2029.34","m40-44",1419415.71092591,3.040252,151243.482493799,NA,NA,1443002.78379145,0,0,1443002.78379145
"126","p2029.34","m45-49",1092194.61415285,2.716303,124844.505840592,NA,NA,1268172.22843211,0,0,1268172.22843211
"127","p2029.34","m50-54",915503.729860551,2.405813,101492.199634767,NA,NA,967350.108312254,0,0,967350.108312254
"128","p2029.34","m55-59",721486.589528488,2.139106,93530.9237577693,NA,NA,814011.530225784,0,0,814011.530225784
"129","p2029.34","m60-64",512974.281542248,1.8618,95273.8553229199,NA,NA,627955.665770718,0,0,627955.665770718
"130","p2029.34","m65-69",387560.806884745,1.516011,102840.15004586,NA,NA,417700.426219328,0,0,417700.426219328
"131","p2029.34","m70-74",250863.528686218,1.113734,93783.8760371683,NA,NA,284720.656838885,0,0,284720.656838885
"132","p2029.34","m75-79",143190.479654171,0.697371,72612.5422836642,NA,NA,157079.652649049,0,0,157079.652649049
"133","p2029.34","m80-84",72814.613811736,0.343731,52349.7695104935,NA,NA,70577.9373705072,0,0,70577.9373705072
"134","p2029.34","m85-89",16521.8138623487,0.096607,12872.2283476084,NA,NA,20464.8443012425,0,0,20464.8443012425
"135","p2029.34","m90-94",5147.27522393965,0.02134,4870.37400758151,NA,NA,3649.58551474036,0,0,3649.58551474036
"136","p2029.34","m95+",729.769973926099,0.001148,663.322193243992,NA,NA,343.348997040248,0,0,343.348997040248
"137","p2029.34","m100+",NA,0.000115,NA,NA,NA,NA,NA,NA,NA
"138","p2029.34","mTotal",27021759.2059592,47.877139,2257189.50320246,NA,NA,29013806.3383295,0,0,29013806.3383295
"139","p2034.39","fBirths",4290123.39349685,5,452871.431590279,1.03,NA,NA,NA,NA,NA
"140","p2034.39","f0-4",3689981.81300046,4.472193,157003.105475724,NA,NA,3837251.96190658,0,0,3837251.96190658
"141","p2034.39","f5-9",3267192.06080652,4.281908,49564.4142484775,NA,NA,3532978.70752474,0,0,3532978.70752474
"142","p2034.39","f10-14",2908380.39102661,4.21695,37517.6552985132,NA,NA,3217627.64655804,0,0,3217627.64655804
"143","p2034.39","f15-19",2778778.19565658,4.162552,69623.1285850138,0.0527,744340.192709932,2870862.7357281,0,0,2870862.7357281
"144","p2034.39","f20-24",2923340.15509208,4.058258,144292.745756098,0.1691,2381137.35516968,2709155.06707157,0,0,2709155.06707157
"145","p2034.39","f25-29",2869158.18923701,3.857947,202723.90794579,0.1751,2472502.00077532,2779047.40933598,0,0,2779047.40933598
"146","p2034.39","f30-34",2239393.71589712,3.585359,169315.565860799,0.1407,1725624.998011,2666434.28129122,0,0,2666434.28129122
"147","p2034.39","f35-39",1906978.67717035,3.314278,134106.203892409,0.0981,975373.186872437,2070078.15003632,0,0,2070078.15003632
"148","p2034.39","f40-44",1608946.21101067,3.081205,109850.660849929,0.0414,350018.233823872,1772872.47327794,0,0,1772872.47327794
"149","p2034.39","f45-49",1498630.52165766,2.870836,102829.884155255,0.008,59954.5214363682,1499095.55016075,0,0,1499095.55016075
"150","p2034.39","f50-54",1050107.63551639,2.673851,76676.6602367091,NA,NA,1395800.63750241,0,0,1395800.63750241
"151","p2034.39","f55-59",886374.249231713,2.478612,84492.6637328577,NA,NA,973430.975279684,0,0,973430.975279684
"152","p2034.39","f60-64",679333.010084867,2.242341,94004.2394828545,NA,NA,801881.585498855,0,0,801881.585498855
"153","p2034.39","f65-69",466394.006276341,1.932052,96120.6865038479,NA,NA,585328.770602013,0,0,585328.770602013
"154","p2034.39","f70-74",353358.734243197,1.533869,107619.363982745,NA,NA,370273.319772493,0,0,370273.319772493
"155","p2034.39","f75-79",214283.741975016,1.066712,92724.7369552624,NA,NA,245739.370260452,0,0,245739.370260452
"156","p2034.39","f80-84",108605.112336521,0.605125,73710.2291698153,NA,NA,121559.005019754,0,0,121559.005019754
"157","p2034.39","f85-89",35302.4153229513,0.194427,24892.1910221799,NA,NA,34894.8831667057,0,0,34894.8831667057
"158","p2034.39","f90-94",8803.92445758555,0.057334,7841.90215447093,NA,NA,10410.2243007714,0,0,10410.2243007714
"159","p2034.39","f95+",1509.64452371085,0.006265,1372.50369192403,NA,NA,1099.16313490144,0,0,1099.16313490144
"160","p2034.39","f100+",NA,0.000626,NA,NA,NA,NA,NA,NA,NA
"161","p2034.39","fTotal",29494852.4045234,50.692074,2289153.88059095,3.4255,8708950.48879861,31495821.9174293,0,0,31495821.9174293
"162","p2034.39","mBirths",4418827.09530176,5,476266.486924138,NA,NA,NA,NA,NA,NA
"163","p2034.39","m0-4",3791248.81190683,4.461094,173541.373738776,NA,NA,3942560.60837762,0,0,3942560.60837762
"164","p2034.39","m5-9",3345546.63325001,4.256891,59029.1511050613,NA,NA,3617707.43816806,0,0,3617707.43816806
"165","p2034.39","m10-14",2970649.2017687,4.181782,41258.799631049,NA,NA,3286517.48214495,0,0,3286517.48214495
"166","p2034.39","m15-19",2778190.7007994,4.123702,59606.0636928968,NA,NA,2929390.40213765,0,0,2929390.40213765
"167","p2034.39","m20-24",2953840.72695965,4.035228,117204.851947818,NA,NA,2718584.6371065,0,0,2718584.6371065
"168","p2034.39","m25-29",2974175.14771454,3.875115,182209.063929205,NA,NA,2836635.87501183,0,0,2836635.87501183
"169","p2034.39","m30-34",2369866.51713339,3.637711,185872.100854038,NA,NA,2791966.08378533,0,0,2791966.08378533
"170","p2034.39","m35-39",1755259.8303739,3.3524,163435.403153428,NA,NA,2183994.41627935,0,0,2183994.41627935
"171","p2034.39","m40-44",1443002.78379145,3.040252,153756.763849331,NA,NA,1591824.42722047,0,0,1591824.42722047
"172","p2034.39","m45-49",1268172.22843211,2.716303,144959.820464022,NA,NA,1289246.01994212,0,0,1289246.01994212
"173","p2034.39","m50-54",967350.108312254,2.405813,107239.858350436,NA,NA,1123212.40796809,0,0,1123212.40796809
"174","p2034.39","m55-59",814011.530225784,2.139106,105525.5239342,NA,NA,860110.249961818,0,0,860110.249961818
"175","p2034.39","m60-64",627955.665770718,1.8618,116629.155500693,NA,NA,708486.006291584,0,0,708486.006291584
"176","p2034.39","m65-69",417700.426219328,1.516011,110837.767244586,NA,NA,511326.510270025,0,0,511326.510270025
"177","p2034.39","m70-74",284720.656838885,1.113734,106441.167139917,NA,NA,306862.658974742,0,0,306862.658974742
"178","p2034.39","m75-79",157079.652649049,0.697371,79655.8049629391,NA,NA,178279.489698968,0,0,178279.489698968
"179","p2034.39","m80-84",70577.9373705072,0.343731,50741.720108891,NA,NA,77423.8476861102,0,0,77423.8476861102
"180","p2034.39","m85-89",20464.8443012425,0.096607,15944.2632109642,NA,NA,19836.2172616162,0,0,19836.2172616162
"181","p2034.39","m90-94",3649.58551474036,0.02134,3453.25354796801,NA,NA,4520.58109027829,0,0,4520.58109027829
"182","p2034.39","m95+",343.348997040248,0.001148,312.086024229774,NA,NA,227.594939582823,0,0,227.594939582823
"183","p2034.39","m100+",NA,0.000115,NA,NA,NA,NA,NA,NA,NA
"184","p2034.39","mTotal",29013806.3383295,47.877139,2453920.47931459,NA,NA,30978712.9543167,0,0,30978712.9543167
"185","p2039.44","fBirths",4371143.48937649,5,461424.026339468,1.03,NA,NA,NA,NA,NA
"186","p2039.44","f0-4",3837251.96190658,4.472193,163269.22598631,NA,NA,3909719.46303703,0,0,3909719.46303703
"187","p2039.44","f5-9",3532978.70752474,4.281908,53596.4880336972,NA,NA,3673982.73592026,0,0,3673982.73592026
"188","p2039.44","f10-14",3217627.64655804,4.21695,41506.8968608743,NA,NA,3479382.21949104,0,0,3479382.21949104
"189","p2039.44","f15-19",2870862.7357281,4.162552,71930.3346024326,0.0527,796690.074204779,3176120.74969717,0,0,3176120.74969717
"190","p2039.44","f20-24",2709155.06707157,4.058258,133720.813373663,0.1691,2328543.97718038,2798932.40112567,0,0,2798932.40112567
"191","p2039.44","f25-29",2779047.40933598,3.857947,196357.019735127,0.1751,2343924.34799308,2575434.25369791,0,0,2575434.25369791
"192","p2039.44","f30-34",2666434.28129122,3.585359,201603.150871839,0.1407,1846379.60298628,2582690.38960085,0,0,2582690.38960085
"193","p2039.44","f35-39",2070078.15003632,3.314278,145575.9971443,0.0981,1112186.50103176,2464831.13041938,0,0,2464831.13041938
"194","p2039.44","f40-44",1772872.47327794,3.081205,121042.711968534,0.0414,382678.273808592,1924502.15289202,0,0,1924502.15289202
"195","p2039.44","f45-49",1499095.55016075,2.870836,102861.792505185,0.008,63018.5062294031,1651829.76130941,0,0,1651829.76130941
"196","p2039.44","f50-54",1395800.63750241,2.673851,101918.439234397,NA,NA,1396233.75765556,0,0,1396233.75765556
"197","p2039.44","f55-59",973430.975279684,2.478612,92791.2517006721,NA,NA,1293882.19826801,0,0,1293882.19826801
"198","p2039.44","f60-64",801881.585498855,2.242341,110962.175370675,NA,NA,880639.723579012,0,0,880639.723579012
"199","p2039.44","f65-69",585328.770602013,1.932052,120632.346264294,NA,NA,690919.41012818,0,0,690919.41012818
"200","p2039.44","f70-74",370273.319772493,1.533869,112770.890633397,NA,NA,464696.424337719,0,0,464696.424337719
"201","p2039.44","f75-79",245739.370260452,1.066712,106336.19824321,NA,NA,257502.429139096,0,0,257502.429139096
"202","p2039.44","f80-84",121559.005019754,0.605125,82502.0289090731,NA,NA,139403.172017242,0,0,139403.172017242
"203","p2039.44","f85-89",34894.8831667057,0.194427,24604.8348118995,NA,NA,39056.9761106807,0,0,39056.9761106807
"204","p2039.44","f90-94",10410.2243007714,0.057334,9272.67842495024,NA,NA,10290.0483548062,0,0,10290.0483548062
"205","p2039.44","f95+",1099.16313490144,0.006265,999.311716754829,NA,NA,1237.39729396782,0,0,1237.39729396782
"206","p2039.44","f100+",NA,0.000626,NA,NA,NA,NA,NA,NA,NA
"207","p2039.44","fTotal",31495821.9174293,50.692074,2455678.61273075,3.4255,8873421.28343428,33411286.794075,0,0,33411286.794075
"208","p2039.44","mBirths",4502277.79405779,5,485260.903376902,NA,NA,NA,NA,NA,NA
"209","p2039.44","m0-4",3942560.60837762,4.461094,180467.549868381,NA,NA,4017016.89068089,0,0,4017016.89068089
"210","p2039.44","m5-9",3617707.43816806,4.256891,63831.1828922481,NA,NA,3762093.05850924,0,0,3762093.05850924
"211","p2039.44","m10-14",3286517.48214495,4.181782,45645.836000772,NA,NA,3553876.25527581,0,0,3553876.25527581
"212","p2039.44","m15-19",2929390.40213765,4.123702,62850.0523167595,NA,NA,3240871.64614418,0,0,3240871.64614418
"213","p2039.44","m20-24",2718584.6371065,4.035228,107870.172887637,NA,NA,2866540.34982089,0,0,2866540.34982089
"214","p2039.44","m25-29",2836635.87501183,3.875115,173782.89502926,NA,NA,2610714.46421887,0,0,2610714.46421887
"215","p2039.44","m30-34",2791966.08378533,3.637711,218977.987897026,NA,NA,2662852.97998257,0,0,2662852.97998257
"216","p2039.44","m35-39",2183994.41627935,3.3524,203355.652384193,NA,NA,2572988.09588831,0,0,2572988.09588831
"217","p2039.44","m40-44",1591824.42722047,3.040252,169614.20677419,NA,NA,1980638.76389516,0,0,1980638.76389516
"218","p2039.44","m45-49",1289246.01994212,2.716303,147368.683365526,NA,NA,1422210.22044628,0,0,1422210.22044628
"219","p2039.44","m50-54",1123212.40796809,2.405813,124518.660299843,NA,NA,1141877.33657659,0,0,1141877.33657659
"220","p2039.44","m55-59",860110.249961818,2.139106,111501.59598258,NA,NA,998693.747668245,0,0,998693.747668245
"221","p2039.44","m60-64",708486.006291584,1.8618,131585.920952605,NA,NA,748608.653979239,0,0,748608.653979239
"222","p2039.44","m65-69",511326.510270025,1.516011,135681.663636936,NA,NA,576900.085338978,0,0,576900.085338978
"223","p2039.44","m70-74",306862.658974742,1.113734,114718.826289491,NA,NA,375644.846633089,0,0,375644.846633089
"224","p2039.44","m75-79",178279.489698968,0.697371,90406.338573217,NA,NA,192143.83268525,0,0,192143.83268525
"225","p2039.44","m80-84",77423.8476861102,0.343731,55663.5593984316,NA,NA,87873.1511257507,0,0,87873.1511257507
"226","p2039.44","m85-89",19836.2172616162,0.096607,15454.4967200106,NA,NA,21760.2882876786,0,0,21760.2882876786
"227","p2039.44","m90-94",4520.58109027829,0.02134,4277.39331653698,NA,NA,4381.72054160557,0,0,4381.72054160557
"228","p2039.44","m95+",227.594939582823,0.001148,206.871726556676,NA,NA,263.910986767454,0,0,263.910986767454
"229","p2039.44","m100+",NA,0.000115,NA,NA,NA,NA,NA,NA,NA
"230","p2039.44","mTotal",30978712.9543167,47.877139,2643040.4496891,NA,NA,32837950.2986854,0,0,32837950.2986854
