Place,SexAge,p2008-13,p2013-18,p2018-23
National,f0-4,0,0,0
National,f5-9,0,0,0
National,f10-14,0,0,0
National,f15-19,0,0,0
National,f20-24,0,0,0
National,f25-29,0,0,0
National,f30-34,0,0,0
National,f35-39,0,0,0
National,f40-44,0,0,0
National,f45-49,0,0,0
National,f50-54,0,0,0
National,f55-59,0,0,0
National,f60-64,0,0,0
National,f65-69,0,0,0
National,f70-74,0,0,0
National,f75-79,0,0,0
National,f80-84,0,0,0
National,f85-89,0,0,0
National,f90-94,0,0,0
National,f95+,0,0,0
National,m0-4,0,0,0
National,m5-9,0,0,0
National,m10-14,0,0,0
National,m15-19,0,0,0
National,m20-24,0,0,0
National,m25-29,0,0,0
National,m30-34,0,0,0
National,m35-39,0,0,0
National,m40-44,0,0,0
National,m45-49,0,0,0
National,m50-54,0,0,0
National,m55-59,0,0,0
National,m60-64,0,0,0
National,m65-69,0,0,0
National,m70-74,0,0,0
National,m75-79,0,0,0
National,m80-84,0,0,0
National,m85-89,0,0,0
National,m90-94,0,0,0
National,m95+,0,0,0
Northern,f0-4,0.00335,0.00335,0.00335
Northern,f5-9,0.00217,0.00217,0.00217
Northern,f10-14,0.00034,0.00034,0.00034
Northern,f15-19,0.00309,0.00309,0.00309
Northern,f20-24,-0.00335,-0.00335,-0.00335
Northern,f25-29,0.00409,0.00409,0.00409
Northern,f30-34,0.00112,0.00112,0.00112
Northern,f35-39,0.00201,0.00201,0.00201
Northern,f40-44,0.00000,0.00000,0.00000
Northern,f45-49,0.00318,0.00318,0.00318
Northern,f50-54,0.00000,0.00000,0.00000
Northern,f55-59,0.00059,0.00059,0.00059
Northern,f60-64,0.00507,0.00507,0.00507
Northern,f65-69,0.00157,0.00157,0.00157
Northern,f70-74,-0.00689,-0.00689,-0.00689
Northern,f75-79,-0.00388,-0.00388,-0.00388
Northern,f80-84,-0.00489,-0.00489,-0.00489
Northern,f85-89,-0.01288,-0.01288,-0.01288
Northern,f90-94,-0.01191,-0.01191,-0.01191
Northern,f95+,-0.03448,-0.03448,-0.03448
Northern,m0-4,-0.00159,-0.00159,-0.00159
Northern,m5-9,0.00154,0.00154,0.00154
Northern,m10-14,0.00476,0.00476,0.00476
Northern,m15-19,0.00707,0.00707,0.00707
Northern,m20-24,0.00063,0.00063,0.00063
Northern,m25-29,0.00586,0.00586,0.00586
Northern,m30-34,0.00559,0.00559,0.00559
Northern,m35-39,0.00958,0.00958,0.00958
Northern,m40-44,0.00227,0.00227,0.00227
Northern,m45-49,0.00565,0.00565,0.00565
Northern,m50-54,0.00389,0.00389,0.00389
Northern,m55-59,0.01442,0.01442,0.01442
Northern,m60-64,0.01638,0.01638,0.01638
Northern,m65-69,0.01471,0.01471,0.01471
Northern,m70-74,0.00264,0.00264,0.00264
Northern,m75-79,0.00312,0.00312,0.00312
Northern,m80-84,-0.00320,-0.00320,-0.00320
Northern,m85-89,0.00000,0.00000,0.00000
Northern,m90-94,-0.01220,-0.01220,-0.01220
Northern,m95+,0.00000,0.00000,0.00000
Central,f0-4,0.00442,0.00442,0.00442
Central,f5-9,0.00367,0.00367,0.00367
Central,f10-14,0.00458,0.00458,0.00458
Central,f15-19,0.00473,0.00473,0.00473
Central,f20-24,0.00673,0.00673,0.00673
Central,f25-29,0.00855,0.00855,0.00855
Central,f30-34,0.00584,0.00584,0.00584
Central,f35-39,0.00393,0.00393,0.00393
Central,f40-44,0.00158,0.00158,0.00158
Central,f45-49,0.00190,0.00190,0.00190
Central,f50-54,0.00269,0.00269,0.00269
Central,f55-59,0.00205,0.00205,0.00205
Central,f60-64,-0.00333,-0.00333,-0.00333
Central,f65-69,0.00057,0.00057,0.00057
Central,f70-74,0.00285,0.00285,0.00285
Central,f75-79,-0.00083,-0.00083,-0.00083
Central,f80-84,0.00303,0.00303,0.00303
Central,f85-89,0.01161,0.01161,0.01161
Central,f90-94,0.00266,0.00266,0.00266
Central,f95+,0.00472,0.00472,0.00472
Central,m0-4,0.00460,0.00460,0.00460
Central,m5-9,0.00421,0.00421,0.00421
Central,m10-14,0.00368,0.00368,0.00368
Central,m15-19,0.00473,0.00473,0.00473
Central,m20-24,0.01492,0.01492,0.01492
Central,m25-29,0.01874,0.01874,0.01874
Central,m30-34,0.01117,0.01117,0.01117
Central,m35-39,0.00701,0.00701,0.00701
Central,m40-44,0.00743,0.00743,0.00743
Central,m45-49,0.00143,0.00143,0.00143
Central,m50-54,0.00318,0.00318,0.00318
Central,m55-59,0.00115,0.00115,0.00115
Central,m60-64,-0.00056,-0.00056,-0.00056
Central,m65-69,0.00128,0.00128,0.00128
Central,m70-74,-0.00222,-0.00222,-0.00222
Central,m75-79,0.00308,0.00308,0.00308
Central,m80-84,0.00242,0.00242,0.00242
Central,m85-89,0.00166,0.00166,0.00166
Central,m90-94,0.00000,0.00000,0.00000
Central,m95+,0.00855,0.00855,0.00855
Southern,f0-4,-0.00508,-0.00508,-0.00508
Southern,f5-9,-0.00405,-0.00405,-0.00405
Southern,f10-14,-0.00446,-0.00446,-0.00446
Southern,f15-19,-0.00554,-0.00554,-0.00554
Southern,f20-24,-0.00533,-0.00533,-0.00533
Southern,f25-29,-0.00870,-0.00870,-0.00870
Southern,f30-34,-0.00593,-0.00593,-0.00593
Southern,f35-39,-0.00425,-0.00425,-0.00425
Southern,f40-44,-0.00153,-0.00153,-0.00153
Southern,f45-49,-0.00280,-0.00280,-0.00280
Southern,f50-54,-0.00243,-0.00243,-0.00243
Southern,f55-59,-0.00185,-0.00185,-0.00185
Southern,f60-64,0.00133,0.00133,0.00133
Southern,f65-69,-0.00109,-0.00109,-0.00109
Southern,f70-74,-0.00037,-0.00037,-0.00037
Southern,f75-79,0.00165,0.00165,0.00165
Southern,f80-84,-0.00110,-0.00110,-0.00110
Southern,f85-89,-0.00526,-0.00526,-0.00526
Southern,f90-94,0.00000,0.00000,0.00000
Southern,f95+,0.00000,0.00000,0.00000
Southern,m0-4,-0.00390,-0.00390,-0.00390
Southern,m5-9,-0.00443,-0.00443,-0.00443
Southern,m10-14,-0.00497,-0.00497,-0.00497
Southern,m15-19,-0.00700,-0.00700,-0.00700
Southern,m20-24,-0.01533,-0.01533,-0.01533
Southern,m25-29,-0.01965,-0.01965,-0.01965
Southern,m30-34,-0.01236,-0.01236,-0.01236
Southern,m35-39,-0.00930,-0.00930,-0.00930
Southern,m40-44,-0.00834,-0.00834,-0.00834
Southern,m45-49,-0.00324,-0.00324,-0.00324
Southern,m50-54,-0.00440,-0.00440,-0.00440
Southern,m55-59,-0.00462,-0.00462,-0.00462
Southern,m60-64,-0.00440,-0.00440,-0.00440
Southern,m65-69,-0.00594,-0.00594,-0.00594
Southern,m70-74,0.00090,0.00090,0.00090
Southern,m75-79,-0.00367,-0.00367,-0.00367
Southern,m80-84,-0.00093,-0.00093,-0.00093
Southern,m85-89,-0.00109,-0.00109,-0.00109
Southern,m90-94,0.00248,0.00248,0.00248
Southern,m95+,-0.00470,-0.00470,-0.00470
