Place,SexAge,p2008-13,p2013-18,p2018-23
National,f0-4,4.472193,4.472193,4.472193
National,f5-9,4.281908,4.281908,4.281908
National,f10-14,4.21695,4.21695,4.21695
National,f15-19,4.162552,4.162552,4.162552
National,f20-24,4.058258,4.058258,4.058258
National,f25-29,3.857947,3.857947,3.857947
National,f30-34,3.585359,3.585359,3.585359
National,f35-39,3.314278,3.314278,3.314278
National,f40-44,3.081205,3.081205,3.081205
National,f45-49,2.870836,2.870836,2.870836
National,f50-54,2.673851,2.673851,2.673851
National,f55-59,2.478612,2.478612,2.478612
National,f60-64,2.242341,2.242341,2.242341
National,f65-69,1.932052,1.932052,1.932052
National,f70-74,1.533869,1.533869,1.533869
National,f75-79,1.066712,1.066712,1.066712
National,f80-84,0.605125,0.605125,0.605125
National,f85-89,0.194427,0.194427,0.194427
National,f90-94,0.057334,0.057334,0.057334
National,f95-99,0.006265,0.006265,0.006265
National,f100+,0.000626,0.000626,0.000626
National,m0-4,4.461094,4.461094,4.461094
National,m5-9,4.256891,4.256891,4.256891
National,m10-14,4.181782,4.181782,4.181782
National,m15-19,4.123702,4.123702,4.123702
National,m20-24,4.035228,4.035228,4.035228
National,m25-29,3.875115,3.875115,3.875115
National,m30-34,3.637711,3.637711,3.637711
National,m35-39,3.3524,3.3524,3.3524
National,m40-44,3.040252,3.040252,3.040252
National,m45-49,2.716303,2.716303,2.716303
National,m50-54,2.405813,2.405813,2.405813
National,m55-59,2.139106,2.139106,2.139106
National,m60-64,1.8618,1.8618,1.8618
National,m65-69,1.516011,1.516011,1.516011
National,m70-74,1.113734,1.113734,1.113734
National,m75-79,0.697371,0.697371,0.697371
National,m80-84,0.343731,0.343731,0.343731
National,m85-89,0.096607,0.096607,0.096607
National,m90-94,0.02134,0.02134,0.02134
National,m95-99,0.001148,0.001148,0.001148
National,m100+,0.000115,0.000115,0.000115
Northern,f0-4,4.610924,4.610924,4.610924
Northern,f5-9,4.464667,4.464667,4.464667
Northern,f10-14,4.413979,4.413979,4.413979
Northern,f15-19,4.371227,4.371227,4.371227
Northern,f20-24,4.288479,4.288479,4.288479
Northern,f25-29,4.126598,4.126598,4.126598
Northern,f30-34,3.899847,3.899847,3.899847
Northern,f35-39,3.666617,3.666617,3.666617
Northern,f40-44,3.459618,3.459618,3.459618
Northern,f45-49,3.267408,3.267408,3.267408
Northern,f50-54,3.082608,3.082608,3.082608
Northern,f55-59,2.894664,2.894664,2.894664
Northern,f60-64,2.660582,2.660582,2.660582
Northern,f65-69,2.341561,2.341561,2.341561
Northern,f70-74,1.911566,1.911566,1.911566
Northern,f75-79,1.375011,1.375011,1.375011
Northern,f80-84,0.807402,0.807402,0.807402
Northern,f85-89,0.267784,0.267784,0.267784
Northern,f90-94,0.079825,0.079825,0.079825
Northern,f95-99,0.008758,0.008758,0.008758
Northern,f100+,0.000876,0.000876,0.000876
Northern,m0-4,4.552714,4.552714,4.552714
Northern,m5-9,4.37839,4.37839,4.37839
Northern,m10-14,4.313581,4.313581,4.313581
Northern,m15-19,4.263209,4.263209,4.263209
Northern,m20-24,4.186039,4.186039,4.186039
Northern,m25-29,4.045032,4.045032,4.045032
Northern,m30-34,3.832686,3.832686,3.832686
Northern,m35-39,3.572182,3.572182,3.572182
Northern,m40-44,3.280313,3.280313,3.280313
Northern,m45-49,2.969544,2.969544,2.969544
Northern,m50-54,2.663873,2.663873,2.663873
Northern,m55-59,2.394969,2.394969,2.394969
Northern,m60-64,2.108945,2.108945,2.108945
Northern,m65-69,1.742745,1.742745,1.742745
Northern,m70-74,1.302802,1.302802,1.302802
Northern,m75-79,0.830868,0.830868,0.830868
Northern,m80-84,0.416078,0.416078,0.416078
Northern,m85-89,0.118261,0.118261,0.118261
Northern,m90-94,0.026214,0.026214,0.026214
Northern,m95-99,0.001411,0.001411,0.001411
Northern,m100+,0.000141,0.000141,0.000141
Central,f0-4,4.483944,4.483944,4.483944
Central,f5-9,4.29723,4.29723,4.29723
Central,f10-14,4.23341,4.23341,4.23341
Central,f15-19,4.179933,4.179933,4.179933
Central,f20-24,4.077324,4.077324,4.077324
Central,f25-29,3.879949,3.879949,3.879949
Central,f30-34,3.610721,3.610721,3.610721
Central,f35-39,3.342253,3.342253,3.342253
Central,f40-44,3.110844,3.110844,3.110844
Central,f45-49,2.901511,2.901511,2.901511
Central,f50-54,2.705095,2.705095,2.705095
Central,f55-59,2.510037,2.510037,2.510037
Central,f60-64,2.273471,2.273471,2.273471
Central,f65-69,1.961939,1.961939,1.961939
Central,f70-74,1.56073,1.56073,1.56073
Central,f75-79,1.08796,1.08796,1.08796
Central,f80-84,0.618625,0.618625,0.618625
Central,f85-89,0.19918,0.19918,0.19918
Central,f90-94,0.058777,0.058777,0.058777
Central,f95-99,0.006424,0.006424,0.006424
Central,f100+,0.000642,0.000642,0.000642
Central,m0-4,4.455501,4.455501,4.455501
Central,m5-9,4.249536,4.249536,4.249536
Central,m10-14,4.173828,4.173828,4.173828
Central,m15-19,4.115302,4.115302,4.115302
Central,m20-24,4.026181,4.026181,4.026181
Central,m25-29,3.864989,3.864989,3.864989
Central,m30-34,3.626205,3.626205,3.626205
Central,m35-39,3.339584,3.339584,3.339584
Central,m40-44,3.026438,3.026438,3.026438
Central,m45-49,2.701931,2.701931,2.701931
Central,m50-54,2.391364,2.391364,2.391364
Central,m55-59,2.124946,2.124946,2.124946
Central,m60-64,1.84829,1.84829,1.84829
Central,m65-69,1.503808,1.503808,1.503808
Central,m70-74,1.103743,1.103743,1.103743
Central,m75-79,0.690452,0.690452,0.690452
Central,m80-84,0.340043,0.340043,0.340043
Central,m85-89,0.095516,0.095516,0.095516
Central,m90-94,0.021095,0.021095,0.021095
Central,m95-99,0.001135,0.001135,0.001135
Central,m100+,0.000114,0.000114,0.000114
Southern,f0-4,4.472193,4.472193,4.472193
Southern,f5-9,4.281908,4.281908,4.281908
Southern,f10-14,4.21695,4.21695,4.21695
Southern,f15-19,4.162552,4.162552,4.162552
Southern,f20-24,4.058258,4.058258,4.058258
Southern,f25-29,3.857947,3.857947,3.857947
Southern,f30-34,3.585359,3.585359,3.585359
Southern,f35-39,3.314278,3.314278,3.314278
Southern,f40-44,3.081205,3.081205,3.081205
Southern,f45-49,2.870836,2.870836,2.870836
Southern,f50-54,2.673851,2.673851,2.673851
Southern,f55-59,2.478612,2.478612,2.478612
Southern,f60-64,2.242341,2.242341,2.242341
Southern,f65-69,1.932052,1.932052,1.932052
Southern,f70-74,1.533869,1.533869,1.533869
Southern,f75-79,1.066712,1.066712,1.066712
Southern,f80-84,0.605125,0.605125,0.605125
Southern,f85-89,0.194427,0.194427,0.194427
Southern,f90-94,0.057334,0.057334,0.057334
Southern,f95-99,0.006265,0.006265,0.006265
Southern,f100+,0.000626,0.000626,0.000626
Southern,m0-4,4.461094,4.461094,4.461094
Southern,m5-9,4.256891,4.256891,4.256891
Southern,m10-14,4.181782,4.181782,4.181782
Southern,m15-19,4.123702,4.123702,4.123702
Southern,m20-24,4.035228,4.035228,4.035228
Southern,m25-29,3.875115,3.875115,3.875115
Southern,m30-34,3.637711,3.637711,3.637711
Southern,m35-39,3.3524,3.3524,3.3524
Southern,m40-44,3.040252,3.040252,3.040252
Southern,m45-49,2.716303,2.716303,2.716303
Southern,m50-54,2.405813,2.405813,2.405813
Southern,m55-59,2.139106,2.139106,2.139106
Southern,m60-64,1.8618,1.8618,1.8618
Southern,m65-69,1.516011,1.516011,1.516011
Southern,m70-74,1.113734,1.113734,1.113734
Southern,m75-79,0.697371,0.697371,0.697371
Southern,m80-84,0.343731,0.343731,0.343731
Southern,m85-89,0.096607,0.096607,0.096607
Southern,m90-94,0.02134,0.02134,0.02134
Southern,m95-99,0.001148,0.001148,0.001148
Southern,m100+,0.000115,0.000115,0.000115
