Place,2019.647,2023.000,2028.000,2033.000,2038.000,2043.000,2053.000,Rate/Yr,Rate/Dec,,
Kenya,3.43,3.29,3.09,2.89,2.70,2.50,2.10,0.0397,0.40,,
Mombasa,2.86,2.78,2.67,2.55,2.44,2.33,2.10,0.0227,0.23,,
Kwale,4.33,4.11,3.77,3.44,3.10,2.77,2.10,0.0669,0.67,,
Kilifi,3.72,3.56,3.32,3.07,2.83,2.59,2.10,0.0486,0.49,,
Tana River,5.22,4.91,4.44,3.97,3.50,3.04,2.10,0.0936,0.94,,
Lamu,4.04,3.85,3.56,3.26,2.97,2.68,2.10,0.0582,0.58,,
Taita-Taveta,3.39,3.26,3.07,2.88,2.68,2.49,2.10,0.0388,0.39,,
Garissa,4.36,4.13,3.79,3.45,3.12,2.78,2.10,0.0677,0.68,,
Wajir,6.73,6.26,5.57,4.87,4.18,3.49,2.10,0.14,1.39,,
Mandera,8.03,7.43,6.54,5.66,4.77,3.88,2.10,0.18,1.78,,
Marsabit,6.96,6.47,5.74,5.01,4.28,3.56,2.10,0.15,1.46,,
Isiolo,4.14,3.93,3.63,3.32,3.02,2.71,2.10,0.0611,0.61,,
Meru,2.94,2.85,2.73,2.60,2.48,2.35,2.10,0.0251,0.25,,
Tharaka-Nithi,2.90,2.82,2.70,2.58,2.46,2.34,2.10,0.0239,0.24,,
Embu,2.89,2.81,2.69,2.57,2.46,2.34,2.10,0.0237,0.24,,
Kitui,3.19,3.08,2.91,2.75,2.59,2.43,2.10,0.0325,0.33,,
Machakos,2.68,2.62,2.53,2.45,2.36,2.27,2.10,0.0173,0.17,,
Makueni,2.76,2.69,2.59,2.49,2.39,2.30,2.10,0.0197,0.20,,
Nyandarua,3.40,3.27,3.07,2.88,2.68,2.49,2.10,0.0389,0.39,,
Nyeri,2.87,2.79,2.68,2.56,2.45,2.33,2.10,0.0230,0.23,,
Kirinyaga,2.70,2.64,2.55,2.46,2.37,2.28,2.10,0.0179,0.18,,
Murang'a,3.24,3.12,2.95,2.78,2.61,2.44,2.10,0.0341,0.34,,
Kiambu,2.73,2.67,2.57,2.48,2.38,2.29,2.10,0.0190,0.19,,
Turkana,6.37,5.94,5.30,4.66,4.02,3.38,2.10,0.13,1.28,,
West Pokot,5.63,5.28,4.75,4.22,3.69,3.16,2.10,0.1059,1.06,,
Samburu,4.85,4.58,4.16,3.75,3.34,2.93,2.10,0.0825,0.83,,
Trans Nzoia,3.67,3.51,3.28,3.04,2.81,2.57,2.10,0.0472,0.47,,
Uasin Gishu,3.02,2.93,2.79,2.65,2.51,2.38,2.10,0.0276,0.28,,
Elgeyo-Marakwet,3.69,3.53,3.29,3.05,2.81,2.58,2.10,0.0476,0.48,,
Nandi,3.18,3.07,2.91,2.75,2.59,2.42,2.10,0.0323,0.32,,
Baringo,3.95,3.76,3.49,3.21,2.93,2.65,2.10,0.0555,0.55,,
Laikipia,3.73,3.57,3.32,3.08,2.83,2.59,2.10,0.0489,0.49,,
Nakuru,3.35,3.23,3.04,2.85,2.66,2.48,2.10,0.0376,0.38,,
Narok,4.62,4.37,3.99,3.61,3.23,2.86,2.10,0.0756,0.76,,
Kajiado,3.30,3.18,3.00,2.82,2.64,2.46,2.10,0.0359,0.36,,
Kericho,3.07,2.97,2.83,2.68,2.54,2.39,2.10,0.0290,0.29,,
Bomet,3.30,3.18,3.00,2.82,2.64,2.46,2.10,0.0359,0.36,,
Kakamega,3.43,3.30,3.10,2.90,2.70,2.50,2.10,0.0398,0.40,,
Vehiga,3.48,3.34,3.13,2.93,2.72,2.51,2.10,0.0413,0.41,,
Bungoma,3.63,3.47,3.25,3.02,2.79,2.56,2.10,0.0458,0.46,,
Busia,3.54,3.40,3.18,2.96,2.75,2.53,2.10,0.0432,0.43,,
Siaya,3.54,3.40,3.18,2.96,2.75,2.53,2.10,0.0432,0.43,,
Kisumu,3.12,3.02,2.87,2.71,2.56,2.41,2.10,0.0307,0.31,,
Homabay,3.64,3.48,3.25,3.02,2.79,2.56,2.10,0.0461,0.46,,
Migori,3.88,3.70,3.43,3.17,2.90,2.63,2.10,0.0533,0.53,,
Kisii,2.82,2.75,2.64,2.53,2.42,2.32,2.10,0.0216,0.22,,
Nyamira,2.68,2.62,2.53,2.45,2.36,2.27,2.10,0.0173,0.17,,
Nairobi City,2.53,2.48,2.42,2.35,2.29,2.23,2.10,0.0127,0.13,,
